{
	"quests" :[
		{
			"name": "Clear zone",
		
			"profile": {
				"killer" : 0.8944271909999159,
				"explorer" : 0.4472135954999579,
				"collecter" : 0.0,
				"socializer" : 0.0
			}
			
			"script": "print(\"her comes some lua script that will generate the quest's steps and maybe the profile modifier (which is a profile)\")";
		},
		{
			"name": "Kill boss",
		
			"profile": {
				"killer" : 0.9938837346736189,
				"explorer" : 0.11043152607484655,
				"collecter" : 0.0,
				"socializer" : 0.0
			}
			
			"script": "print(\"her comes some lua script that will generate the quest's steps and maybe the profile modifier (which is a profile)\")";}
		},
		{
			"name": "Collect objects",
		
			"profile": {
				"killer": 0,
				"explorer": 0.35112344158839165,
				"collecter": 0.9363291775690444,
				"socializer": 0
			}
			
			"script": "print(\"her comes some lua script that will generate the quest's steps and maybe the profile modifier (which is a profile)\")";}
		},
		{
			"name": "Find object",
		
			"profile": {
				"killer": 0,
				"explorer": 0.6401843996644799,
				"collecter": 0.7682212795973759,
				"socializer": 0
			}
			
			"script": "print(\"her comes some lua script that will generate the quest's steps and maybe the profile modifier (which is a profile)\")";}
		},
		{
			"name": "Talk to people",
		
			"profile": {
				"killer": 0,
				"explorer": 0.6401843996644799,
				"collecter": 0,
				"socializer": 0.7682212795973759
			}
			
			"script": "print(\"her comes some lua script that will generate the quest's steps and maybe the profile modifier (which is a profile)\")";}
		}
	]
}